…
For this part of the project we are using TECH data
channel for training and building a predictive modeling and extending
same models to other five data channels.

newspopData <- read_csv('OnlineNewsPopularity.csv')

# select specified data channel from params and drop other data channel columns
newspopData <- newspopData %>% filter(newspopData[params$data_channel] == 1) %>%
  select( -starts_with('data_channel_is_'), -url)

newspopData

## # A tibble: 7,346 × 54
##    timedelta n_tokens…¹ n_tok…² n_uni…³ n_non…⁴
##        <dbl>      <dbl>   <dbl>   <dbl>   <dbl>
##  1       731         13    1072   0.416    1.00
##  2       731         10     370   0.560    1.00
##  3       731         12     989   0.434    1.00
##  4       731         11      97   0.670    1.00
##  5       731          8    1207   0.411    1.00
##  6       731         13    1248   0.391    1.00
##  7       731         11    1154   0.427    1.00
##  8       731          8     266   0.573    1.00
##  9       731          8     331   0.563    1.00
## 10       731         12    1225   0.385    1.00
## # … with 7,336 more rows, 49 more variables:
## #   n_non_stop_unique_tokens <dbl>,
## #   num_hrefs <dbl>, num_self_hrefs <dbl>,
## #   num_imgs <dbl>, num_videos <dbl>,
## #   average_token_length <dbl>,
## #   num_keywords <dbl>, kw_min_min <dbl>,
## #   kw_max_min <dbl>, kw_avg_min <dbl>, …
…
Now, we are creating the training data for Random Forest Ensemble
model.

# Creating training data PCs without the logShares variables
treeTrainData <- predict(PCs, newdata = trainData %>% select(-shares, -logShares)) %>% 
  as_tibble() %>% 
  select(PC1:paste0("PC", pt))

treeTrainData$logShares <- trainData$logShares

# This the final training data that will be used to train random forest model
treeTrainData

## # A tibble: 5,145 × 23
##      PC1     PC2   PC3    PC4   PC5      PC6
##    <dbl>   <dbl> <dbl>  <dbl> <dbl>    <dbl>
##  1  1.45 -0.424  -4.92 -0.530  2.32 -1.04   
##  2 -5.04  3.32   -3.06 -0.555  2.55  0.00747
##  3  3.32  2.36   -3.63  1.18   3.10  0.652  
##  4 -5.87  3.13   -3.35 -1.83   1.87  1.84   
##  5 -4.44  3.05   -3.41 -2.08   1.41  2.66   
##  6 -3.77  2.54   -3.81 -1.04   1.93  2.65   
##  7  2.62 -0.0516 -5.25 -1.55   1.09 -2.02   
##  8 -5.72  2.20   -3.72 -1.44   2.13 -0.285  
##  9 -5.24  2.28   -3.56 -1.11   2.22  1.49   
## 10 -4.31  3.15   -3.58 -1.53   1.72  2.83   
## # … with 5,135 more rows, and 17 more
## #   variables: PC7 <dbl>, PC8 <dbl>,
## #   PC9 <dbl>, PC10 <dbl>, PC11 <dbl>,
## #   PC12 <dbl>, PC13 <dbl>, PC14 <dbl>,
## #   PC15 <dbl>, PC16 <dbl>, PC17 <dbl>,
## #   PC18 <dbl>, PC19 <dbl>, PC20 <dbl>,
## #   PC21 <dbl>, PC22 <dbl>, logShares <dbl>
…
