…
Data

The dataset summarizes a heterogeneous set of features about articles published by in a period of two years.The dataset has 39644 data points and 61 feature columns. The project is aimed to subset the original dataset based on type of data channel (one of the six type) and then to predict the number of shares. For our project we are using TECH data channel for training and building a predictive modeling and eventually extending same model to other five data channel. User will have flexibility to choose the type of analysis they want based on their personal choice.

newspopData <- read_csv('OnlineNewsPopularity.csv',
                              locale = locale(encoding = 'latin1'))
# select specified data channel and drop other data channel columns
# this should be replaced by param$data_channel
newspopData <- filter(newspopData, newspopData[params$data_channel]== 1)%>%
  select(everything(), -starts_with('data_channel_is_'), -url)

newspopData %>%
  select(everything(), -starts_with('data_channel_is_'))

## # A tibble: 2,099 x 54
##    timedelta n_tok~1 n_tok~2 n_uni~3 n_non~4 n_non~5 num_h~6 num_s~7 num_i~8 num_v~9
##        <dbl>   <dbl>   <dbl>   <dbl>   <dbl>   <dbl>   <dbl>   <dbl>   <dbl>   <dbl>
##  1       731       8     960   0.418    1.00   0.550      21      20      20       0
##  2       731      10     187   0.667    1.00   0.800       7       0       1       0
##  3       731      11     103   0.689    1.00   0.806       3       1       1       0
##  4       731      10     243   0.619    1.00   0.824       1       1       0       0
##  5       731       8     204   0.586    1.00   0.698       7       2       1       0
##  6       731      11     315   0.551    1.00   0.702       4       4       1       0
##  7       731      10    1190   0.409    1.00   0.561      25      24      20       0
##  8       731       6     374   0.641    1.00   0.828       7       0       1       0
##  9       730      12     499   0.513    1.00   0.662      14       1       1       0
## 10       729      11     223   0.662    1.00   0.826       5       3       0       0
## # ... with 2,089 more rows, 44 more variables: average_token_length <dbl>,
## #   num_keywords <dbl>, kw_min_min <dbl>, kw_max_min <dbl>, kw_avg_min <dbl>,
## #   kw_min_max <dbl>, kw_max_max <dbl>, kw_avg_max <dbl>, kw_min_avg <dbl>,
## #   kw_max_avg <dbl>, kw_avg_avg <dbl>, self_reference_min_shares <dbl>,
## #   self_reference_max_shares <dbl>, self_reference_avg_sharess <dbl>,
## #   weekday_is_monday <dbl>, weekday_is_tuesday <dbl>, weekday_is_wednesday <dbl>,
## #   weekday_is_thursday <dbl>, weekday_is_friday <dbl>, ...
…
