…
Data

The dataset summarizes a heterogeneous set of features about articles published by in a period of two years.The dataset has 39644 data points and 61 feature columns. The project is aimed to subset the original dataset based on type of data channel (one of the six type) and then to predict the number of shares. For our project we are using TECH data channel for training and building a predictive modeling and eventually extending same model to other five data channel. User will have flexibility to choose the type of analysis they want based on their personal choice.

newspopData <- read_csv('OnlineNewsPopularity.csv',
                              locale = locale(encoding = 'latin1'))
# select specified data channel and drop other data channel columns
# this should be replaced by param$data_channel
newspopData <- filter(newspopData, newspopData[params$data_channel]== 1)%>%
  select(everything(), -starts_with('data_channel_is_'), -url)

newspopData %>%
  select(everything(), -starts_with('data_channel_is_'))

## # A tibble: 6,258 x 54
##    timedelta n_tok~1 n_tok~2 n_uni~3 n_non~4 n_non~5 num_h~6 num_s~7 num_i~8 num_v~9
##        <dbl>   <dbl>   <dbl>   <dbl>   <dbl>   <dbl>   <dbl>   <dbl>   <dbl>   <dbl>
##  1       731       9     255   0.605    1.00   0.792       3       1       1       0
##  2       731       9     211   0.575    1.00   0.664       3       1       1       0
##  3       731       8     397   0.625    1.00   0.806      11       0       1       0
##  4       731      13     244   0.560    1.00   0.680       3       2       1       0
##  5       731      11     723   0.491    1.00   0.642      18       1       1       0
##  6       731       8     708   0.482    1.00   0.688       8       3       1       1
##  7       731      10     142   0.655    1.00   0.792       2       1       1       0
##  8       731      12     444   0.601    1.00   0.755       9       8      23       0
##  9       731       6     109   0.667    1.00   0.737       3       2       1       0
## 10       730      13     306   0.535    1.00   0.705       3       2       1       0
## # ... with 6,248 more rows, 44 more variables: average_token_length <dbl>,
## #   num_keywords <dbl>, kw_min_min <dbl>, kw_max_min <dbl>, kw_avg_min <dbl>,
## #   kw_min_max <dbl>, kw_max_max <dbl>, kw_avg_max <dbl>, kw_min_avg <dbl>,
## #   kw_max_avg <dbl>, kw_avg_avg <dbl>, self_reference_min_shares <dbl>,
## #   self_reference_max_shares <dbl>, self_reference_avg_sharess <dbl>,
## #   weekday_is_monday <dbl>, weekday_is_tuesday <dbl>, weekday_is_wednesday <dbl>,
## #   weekday_is_thursday <dbl>, weekday_is_friday <dbl>, ...
…
