…
For this part of the project we are using SOCMED
data channel for training and building a predictive modeling and
extending same models to other five data channels.

newspopData <- read_csv('OnlineNewsPopularity.csv')

# select specified data channel from params and drop other data channel columns
newspopData <- newspopData %>% filter(newspopData[params$data_channel] == 1) %>%
  select( -starts_with('data_channel_is_'), -url)

newspopData

## # A tibble: 2,323 × 54
##    timedelta n_tokens…¹ n_tok…² n_uni…³ n_non…⁴
##        <dbl>      <dbl>   <dbl>   <dbl>   <dbl>
##  1       731          8     257   0.568    1.00
##  2       731          8     218   0.663    1.00
##  3       731          9    1226   0.410    1.00
##  4       731         10    1121   0.451    1.00
##  5       729          9     168   0.778    1.00
##  6       729          9     100   0.760    1.00
##  7       729         10    1596   0.420    1.00
##  8       728          7     518   0.486    1.00
##  9       727          8     358   0.503    1.00
## 10       727          6     358   0.622    1.00
## # … with 2,313 more rows, 49 more variables:
## #   n_non_stop_unique_tokens <dbl>,
## #   num_hrefs <dbl>, num_self_hrefs <dbl>,
## #   num_imgs <dbl>, num_videos <dbl>,
## #   average_token_length <dbl>,
## #   num_keywords <dbl>, kw_min_min <dbl>,
## #   kw_max_min <dbl>, kw_avg_min <dbl>, …
…
Now, we are creating the training data for Random Forest Ensemble
model.

# Creating training data PCs without the logShares variables
treeTrainData <- predict(PCs, newdata = trainData %>% select(-shares, -logShares)) %>% 
  as_tibble() %>% 
  select(PC1:paste0("PC", pt))

treeTrainData$logShares <- trainData$logShares

# This the final training data that will be used to train random forest model
treeTrainData

## # A tibble: 1,628 × 21
##       PC1    PC2    PC3    PC4   PC5     PC6
##     <dbl>  <dbl>  <dbl>  <dbl> <dbl>   <dbl>
##  1 -1.41   1.36   2.46   1.04   2.26 -0.895 
##  2 -1.67  -0.402  2.67   1.05   1.98 -0.328 
##  3 -0.376 -1.42  -0.589  3.84   5.73 -2.09  
##  4  1.74  -1.19   5.13  -2.32   1.52 -1.33  
##  5 -2.50   0.189  3.06  -0.497  2.49  0.439 
##  6 -1.65  -2.05   1.78  -0.347  3.44  0.458 
##  7 -0.810 -1.29   2.15   0.662  3.78 -1.18  
##  8  1.46  -1.10   3.96  -1.39   2.64 -0.0528
##  9 -1.49  -1.05   2.36  -1.09   2.78 -0.163 
## 10 -3.55  -0.375  1.09   0.277  3.32 -1.94  
## # … with 1,618 more rows, and 15 more
## #   variables: PC7 <dbl>, PC8 <dbl>,
## #   PC9 <dbl>, PC10 <dbl>, PC11 <dbl>,
## #   PC12 <dbl>, PC13 <dbl>, PC14 <dbl>,
## #   PC15 <dbl>, PC16 <dbl>, PC17 <dbl>,
## #   PC18 <dbl>, PC19 <dbl>, PC20 <dbl>,
## #   logShares <dbl>
…
