…
For this part of the project we are using WORLD data
channel for training and building a predictive modeling and extending
same models to other five data channels.

newspopData <- read_csv('OnlineNewsPopularity.csv')

# select specified data channel from params and drop other data channel columns
newspopData <- newspopData %>% filter(newspopData[params$data_channel] == 1) %>%
  select( -starts_with('data_channel_is_'), -url)

newspopData

## # A tibble: 8,427 × 54
##    timedelta n_tokens…¹ n_tok…² n_uni…³ n_non…⁴
##        <dbl>      <dbl>   <dbl>   <dbl>   <dbl>
##  1       731         10     231   0.636    1.00
##  2       731          9    1248   0.490    1.00
##  3       731         12     682   0.460    1.00
##  4       731          9     391   0.510    1.00
##  5       731         11     125   0.675    1.00
##  6       731         11     799   0.504    1.00
##  7       731         11     317   0.611    1.00
##  8       731         11     399   0.598    1.00
##  9       731          9     443   0.467    1.00
## 10       730         12     288   0.589    1.00
## # … with 8,417 more rows, 49 more variables:
## #   n_non_stop_unique_tokens <dbl>,
## #   num_hrefs <dbl>, num_self_hrefs <dbl>,
## #   num_imgs <dbl>, num_videos <dbl>,
## #   average_token_length <dbl>,
## #   num_keywords <dbl>, kw_min_min <dbl>,
## #   kw_max_min <dbl>, kw_avg_min <dbl>, …
…
Now, we are creating the training data for Random Forest Ensemble
model.

# Creating training data PCs without the logShares variables
treeTrainData <- predict(PCs, newdata = trainData %>% select(-shares, -logShares)) %>% 
  as_tibble() %>% 
  select(PC1:paste0("PC", pt))

treeTrainData$logShares <- trainData$logShares

# This the final training data that will be used to train random forest model
treeTrainData

## # A tibble: 5,900 × 22
##       PC1   PC2   PC3    PC4     PC5   PC6
##     <dbl> <dbl> <dbl>  <dbl>   <dbl> <dbl>
##  1 -2.51  1.61  -3.99  0.220  1.36   1.73 
##  2 -0.975 0.869 -4.95  0.121  1.32   1.61 
##  3  1.17  3.13  -5.03 -0.878 -0.895  1.12 
##  4 -0.972 6.20  -2.62 -1.87  -1.69   1.76 
##  5 -1.44  1.95  -4.74 -0.771  0.311  1.45 
##  6 -2.55  2.32  -4.48 -0.319  0.0847 1.24 
##  7 -0.666 1.98  -5.03 -0.423 -0.739  0.774
##  8 -2.51  3.72  -4.83  0.420 -0.633  0.524
##  9  0.254 2.76  -5.16  1.96   1.09   1.45 
## 10 -3.11  4.87  -4.38  0.652  0.0210 1.00 
## # … with 5,890 more rows, and 16 more
## #   variables: PC7 <dbl>, PC8 <dbl>,
## #   PC9 <dbl>, PC10 <dbl>, PC11 <dbl>,
## #   PC12 <dbl>, PC13 <dbl>, PC14 <dbl>,
## #   PC15 <dbl>, PC16 <dbl>, PC17 <dbl>,
## #   PC18 <dbl>, PC19 <dbl>, PC20 <dbl>,
## #   PC21 <dbl>, logShares <dbl>
…
