…
For this part of the project we are using
ENTERTAINMENT data channel for training and building a
predictive modeling and extending same models to other five data
channels.

newspopData <- read_csv('OnlineNewsPopularity.csv')

# select specified data channel from params and drop other data channel columns
newspopData <- newspopData %>% filter(newspopData[params$data_channel] == 1) %>%
  select( -starts_with('data_channel_is_'), -url)

newspopData

## # A tibble: 7,057 × 54
##    timedelta n_tokens…¹ n_tok…² n_uni…³ n_non…⁴
##        <dbl>      <dbl>   <dbl>   <dbl>   <dbl>
##  1       731         12     219   0.664    1.00
##  2       731          9     531   0.504    1.00
##  3       731         14     194   0.765    1.00
##  4       731         12     161   0.669    1.00
##  5       731         11     454   0.566    1.00
##  6       731         12     177   0.741    1.00
##  7       731          5     356   0.618    1.00
##  8       730         11     281   0.611    1.00
##  9       730         10     909   0.450    1.00
## 10       729         10     413   0.606    1.00
## # … with 7,047 more rows, 49 more variables:
## #   n_non_stop_unique_tokens <dbl>,
## #   num_hrefs <dbl>, num_self_hrefs <dbl>,
## #   num_imgs <dbl>, num_videos <dbl>,
## #   average_token_length <dbl>,
## #   num_keywords <dbl>, kw_min_min <dbl>,
## #   kw_max_min <dbl>, kw_avg_min <dbl>, …
…
Now, we are creating the training data for Random Forest Ensemble
model.

# Creating training data PCs without the logShares variables
treeTrainData <- predict(PCs, newdata = trainData %>% select(-shares, -logShares)) %>% 
  as_tibble() %>% 
  select(PC1:paste0("PC", pt))

treeTrainData$logShares <- trainData$logShares

# This the final training data that will be used to train random forest model
treeTrainData

## # A tibble: 4,941 × 23
##       PC1   PC2    PC3      PC4     PC5     PC6
##     <dbl> <dbl>  <dbl>    <dbl>   <dbl>   <dbl>
##  1  0.442 -5.90  0.364 -0.705    2.31    1.23  
##  2  1.67  -3.43 -1.83  -0.0329  -0.309   0.954 
##  3  0.836 -4.13 -2.44  -0.164    0.433   0.612 
##  4  1.49  -5.47 -1.31  -0.309    0.876  -0.0926
##  5  1.43  -4.85 -2.58  -0.297    0.0543  1.16  
##  6 -0.147 -4.30 -3.42   0.0680  -1.24    0.912 
##  7  1.99  -4.33 -2.49  -0.145   -1.33    0.896 
##  8  0.650 -4.70 -2.61  -0.0444  -1.11    1.43  
##  9 -0.531 -5.69 -2.88   0.0180  -1.14    0.672 
## 10  0.856 -6.29 -1.38  -0.00206 -1.42    0.436 
## # … with 4,931 more rows, and 17 more
## #   variables: PC7 <dbl>, PC8 <dbl>,
## #   PC9 <dbl>, PC10 <dbl>, PC11 <dbl>,
## #   PC12 <dbl>, PC13 <dbl>, PC14 <dbl>,
## #   PC15 <dbl>, PC16 <dbl>, PC17 <dbl>,
## #   PC18 <dbl>, PC19 <dbl>, PC20 <dbl>,
## #   PC21 <dbl>, PC22 <dbl>, logShares <dbl>
…
